Count Regression (ELMR Chapter 5)
…
              Theta:  1.675 
          Std. Err.:  0.442 

 2 x log-likelihood:  -290.223 

9 Zero-inflated count models

The bioChemists data set contains 915 biochemistry graduate students. The outcome of interest is the number of articles procuded during the last three years of the PhD.

library(pscl)

(bioChemists <- as_tibble(bioChemists))

# A tibble: 915 × 6
     art fem   mar      kid5   phd  ment
   <int> <fct> <fct>   <dbl> <dbl> <int>
 1     0 Men   Married     0  2.52     7
 2     0 Women Single      0  2.05     6
 3     0 Women Single      0  3.75     6
 4     0 Men   Married     1  1.18     3
 5     0 Women Single      0  3.75    26
 6     0 Women Married     2  3.59     2
 7     0 Women Single      0  3.19     3
 8     0 Men   Married     2  2.96     4
 9     0 Men   Single      0  4.62     6
10     0 Women Married     0  1.25     0
# ℹ 905 more rows
…
